com\andrei1058\spigot\sidebar\Sidebar_v1_11_R1.class
com\andrei1058\spigot\sidebar\Provider_v1_11_R1.class
com\andrei1058\spigot\sidebar\Sidebar_v1_11_R1$ScoreLine.class
com\andrei1058\spigot\sidebar\PlayerList_v1_11_R1.class
com\andrei1058\spigot\sidebar\Sidebar_v1_11_R1$ScoreLine$TeamLine.class
com\andrei1058\spigot\sidebar\Sidebar_v1_11_R1$SidebarObjective.class
com\andrei1058\spigot\sidebar\CustomScore_v1_11_R1.class
